feature_ty,name,additional,add_names_,busway_nam,pfi,ufi,MB_CODE21,MB_CAT21,SA1_CODE21,SA2_CODE21,SA2_NAME21,AREASQKM21,LOCI_URI21,geometry,centroid,longitude,latitude,type
Busway Station,RBWH station,,,Northern Busway,1.13003E+14,1.13003E+14,30075420000,Hospital/Medical,30503112614,305031126,Kelvin Grove - Herston,0.1971,http://linked.data.gov.au/dataset/asgsed3/MB/30075420000,POINT (153.02917103700008 -27.447226944999954),POINT (153.02917103700008 -27.447226944999954),153.02917103700008,-27.44722694,bus
Busway Station,Buranda busway station,Buranda,Translink Website,South East Busway ; Eastern Busway,1.13003E+14,1.13003E+14,30139350000,Transport,30302105819,303021058,Woolloongabba,0.0694,http://linked.data.gov.au/dataset/asgsed3/MB/30139350000,POINT (153.03938902900006 -27.49713094699996),POINT (153.03938902900006 -27.49713094699996),153.03938902900006,-27.49713095,bus
Busway Station,Upper Mt Gravatt station,"Upper Mt Gravatt Station , Garden City Shopping Centre Bus Station",Translink Website,South East Busway,1.13003E+14,1.13003E+14,30132043000,Commercial,30303106511,303031065,Upper Mount Gravatt,0.2915,http://linked.data.gov.au/dataset/asgsed3/MB/30132043000,POINT (153.0815250160001 -27.564069950999965),POINT (153.0815250160001 -27.564069950999965),153.0815250160001,-27.56406995,bus
Busway Station,South Bank busway station,,,South East Busway,1.13003E+14,1.13003E+14,30118394000,Commercial,30501111030,305011110,South Brisbane,0.026,http://linked.data.gov.au/dataset/asgsed3/MB/30118394000,POINT (153.02206003300012 -27.480934944999944),POINT (153.02206003300012 -27.480934944999944),153.02206003300012,-27.48093494,bus
Busway Station,Greenslopes station,,,South East Busway,1.13003E+14,1.13003E+14,30072600000,Transport,30302105517,303021055,Greenslopes,0.0344,http://linked.data.gov.au/dataset/asgsed3/MB/30072600000,POINT (153.04021802700004 -27.510915946999944),POINT (153.04021802700004 -27.510915946999944),153.04021802700004,-27.51091595,bus
Busway Station,Herston station,,,Northern Busway,1.13003E+14,1.13003E+14,30075410000,Parkland,30503112616,305031126,Kelvin Grove - Herston,0.7216,http://linked.data.gov.au/dataset/asgsed3/MB/30075410000,POINT (153.02491653700008 -27.44978744499997),POINT (153.02491653700008 -27.44978744499997),153.02491653700008,-27.44978744,bus
Busway Station,UQ Lakes station,,,Eastern Busway,1.13003E+14,1.13003E+14,30114560000,Education,30403109615,304031096,St Lucia,1.2208,http://linked.data.gov.au/dataset/asgsed3/MB/30114560000,POINT (153.01794053100002 -27.49785994399997),POINT (153.01794053100002 -27.49785994399997),153.01794053100002,-27.49785994,bus
Busway Station,Kedron Brook station,,,Northern Busway,1.13003E+14,1.13003E+14,36295700000,Residential,30503113108,305031131,Wooloowin - Lutwyche,0.034,http://linked.data.gov.au/dataset/asgsed3/MB/36295700000,POINT (153.03549354000006 -27.415161945999955),POINT (153.03549354000006 -27.415161945999955),153.03549354000006,-27.41516195,bus
Busway Station,Lutwyche station,,,Northern Busway,1.13003E+14,1.13003E+14,30562460800,Residential,30503113128,305031131,Wooloowin - Lutwyche,0.0114,http://linked.data.gov.au/dataset/asgsed3/MB/30562460800,POINT (153.03437303900012 -27.420127944999933),POINT (153.03437303900012 -27.420127944999933),153.03437303900012,-27.42012794,bus
Busway Station,Dutton Park Place,,,Eastern Busway,1.13003E+14,1.13003E+14,30562522400,Parkland,30302105401,303021054,Fairfield - Dutton Park,0.1195,http://linked.data.gov.au/dataset/asgsed3/MB/30562522400,POINT (153.02457803100003 -27.49803544499997),POINT (153.02457803100003 -27.49803544499997),153.02457803100003,-27.49803544,bus
Busway Station,QUT Kelvin Grove station,,,Northern Busway,1.13003E+14,1.13003E+14,30075410000,Parkland,30503112616,305031126,Kelvin Grove - Herston,0.7216,http://linked.data.gov.au/dataset/asgsed3/MB/30075410000,POINT (153.01818903700007 -27.452085943999975),POINT (153.01818903700007 -27.452085943999975),153.01818903700007,-27.45208594,bus
Busway Station,King George Square station,,,Northern Busway,1.13003E+14,1.13003E+14,30053940000,Commercial,30501110536,305011105,Brisbane City,0.0092,http://linked.data.gov.au/dataset/asgsed3/MB/30053940000,POINT (153.02393503500002 -27.468428444999972),POINT (153.02393503500002 -27.468428444999972),153.02393503500002,-27.46842844,bus
Busway Station,Woolloongabba station,,,South East Busway,1.13003E+14,1.13003E+14,30139231000,Commercial,30302105803,303021058,Woolloongabba,0.0706,http://linked.data.gov.au/dataset/asgsed3/MB/30139231000,POINT (153.0348885310001 -27.48603594599996),POINT (153.0348885310001 -27.48603594599996),153.0348885310001,-27.48603595,bus
Busway Station,Holland Park West station,,,South East Busway,1.13003E+14,1.13003E+14,30077300000,Transport,30302105708,303021057,Holland Park West,0.0253,http://linked.data.gov.au/dataset/asgsed3/MB/30077300000,POINT (153.05740502300011 -27.528595948999964),POINT (153.05740502300011 -27.528595948999964),153.05740502300011,-27.52859595,bus
Busway Station,Langlands Park station,,,Eastern Busway,1.13003E+14,1.13003E+14,30562697800,Transport,30302105531,303021055,Greenslopes,0.0144,http://linked.data.gov.au/dataset/asgsed3/MB/30562697800,POINT (153.04947902800006 -27.498555947999932),POINT (153.04947902800006 -27.498555947999932),153.04947902800006,-27.49855595,bus
Busway Station,Roma Street busway station,,,Northern Busway,1.13003E+14,1.13003E+14,30563409400,Commercial,30501110521,305011105,Brisbane City,0.051,http://linked.data.gov.au/dataset/asgsed3/MB/30563409400,POINT (153.01878803500006 -27.46590544399993),POINT (153.01878803500006 -27.46590544399993),153.01878803500006,-27.46590544,bus
Busway Station,PA Hospital station,,,Eastern Busway,1.13003E+14,1.13003E+14,30564004400,Transport,30302105810,303021058,Woolloongabba,0.038,http://linked.data.gov.au/dataset/asgsed3/MB/30564004400,POINT (153.03403703000004 -27.496799445999955),POINT (153.03403703000004 -27.496799445999955),153.03403703000004,-27.49679945,bus
Busway Station,Stones Corner station,,,Eastern Busway,1.13003E+14,1.13003E+14,30562566600,Commercial,30302105529,303021055,Greenslopes,0.0192,http://linked.data.gov.au/dataset/asgsed3/MB/30562566600,POINT (153.04431552900007 -27.497807946999956),POINT (153.04431552900007 -27.497807946999956),153.04431552900007,-27.49780795,bus
Busway Station,Cultural Centre station,,,South East Busway,1.13003E+14,1.13003E+14,30564076900,Commercial,30501111008,305011110,South Brisbane,0.0619,http://linked.data.gov.au/dataset/asgsed3/MB/30564076900,POINT (153.0190345840001 -27.473640571999965),POINT (153.0190345840001 -27.473640571999965),153.0190345840001,-27.47364057,bus
Busway Station,Boggo Road station,,,Eastern Busway,1.13003E+14,1.13003E+14,30562520300,Transport,30302105408,303021054,Fairfield - Dutton Park,0.0362,http://linked.data.gov.au/dataset/asgsed3/MB/30562520300,POINT (153.03038803100003 -27.49396844599994),POINT (153.03038803100003 -27.49396844599994),153.03038803100003,-27.49396845,bus
Busway Station,Eight Mile Plains station,,,South East Busway,1.13003E+14,1.13003E+14,30562795400,Parkland,30303106408,303031064,Rochedale - Burbank,0.1272,http://linked.data.gov.au/dataset/asgsed3/MB/30562795400,POINT (153.101936012 -27.578635453999937),POINT (153.101936012 -27.578635453999937),153.101936,-27.57863545,bus
Busway Station,Griffith University station,,,South East Busway,1.13003E+14,1.13003E+14,30097780000,Residential,30303106324,303031063,Mount Gravatt,0.4512,http://linked.data.gov.au/dataset/asgsed3/MB/30097780000,POINT (153.06438402000003 -27.54655994999996),POINT (153.06438402000003 -27.54655994999996),153.06438402000003,-27.54655995,bus
Busway Station,Mater Hill station,,,South East Busway,1.13003E+14,1.13003E+14,30118343000,Commercial,30501111001,305011110,South Brisbane,0.0292,http://linked.data.gov.au/dataset/asgsed3/MB/30118343000,POINT (153.02845603200012 -27.484456444999978),POINT (153.02845603200012 -27.484456444999978),153.02845603200012,-27.48445644,bus
Busway Station,Normanby station,,,Northern Busway,1.13003E+14,1.13003E+14,30563260400,Transport,30503112618,305031126,Kelvin Grove - Herston,0.0326,http://linked.data.gov.au/dataset/asgsed3/MB/30563260400,POINT (153.0151375370001 -27.458930443999975),POINT (153.0151375370001 -27.458930443999975),153.0151375370001,-27.45893044,bus
Busway Station,Federation Street,,,Northern Busway,1.13003E+14,1.13003E+14,30563703200,Transport,30503113001,305031130,Windsor,0.0502,http://linked.data.gov.au/dataset/asgsed3/MB/30563703200,POINT (153.03120611600002 -27.44115609599993),POINT (153.03120611600002 -27.44115609599993),153.03120611600002,-27.4411561,bus
Busway Station,Windsor stop,,,Northern Busway,1.13003E+14,1.13003E+14,30563674900,Residential,30503113017,305031130,Windsor,0.0079,http://linked.data.gov.au/dataset/asgsed3/MB/30563674900,POINT (153.0316199 -27.43483715399998),POINT (153.0316199 -27.43483715399998),153.0316199,-27.43483715,bus
Busway Station,Truro Street,,,Northern Busway,1.13003E+14,1.13003E+14,30137660000,Parkland,30503113009,305031130,Windsor,0.0177,http://linked.data.gov.au/dataset/asgsed3/MB/30137660000,POINT (153.03292552200003 -27.426853586999982),POINT (153.03292552200003 -27.426853586999982),153.03292552200003,-27.42685359,bus
